^C:\USERS\MADS\SOURCE\REPOS\PROIECT\OPENGL-PROJECT\DEMO\LAB10\X64\DEBUG\CAMERA.OBJ|C:\USERS\MADS\SOURCE\REPOS\PROIECT\OPENGL-PROJECT\DEMO\LAB10\X64\DEBUG\MAIN.OBJ|C:\USERS\MADS\SOURCE\REPOS\PROIECT\OPENGL-PROJECT\DEMO\LAB10\X64\DEBUG\MESH.OBJ|C:\USERS\MADS\SOURCE\REPOS\PROIECT\OPENGL-PROJECT\DEMO\LAB10\X64\DEBUG\MODEL3D.OBJ|C:\USERS\MADS\SOURCE\REPOS\PROIECT\OPENGL-PROJECT\DEMO\LAB10\X64\DEBUG\SHADER.OBJ|C:\USERS\MADS\SOURCE\REPOS\PROIECT\OPENGL-PROJECT\DEMO\LAB10\X64\DEBUG\SKYBOX.OBJ|C:\USERS\MADS\SOURCE\REPOS\PROIECT\OPENGL-PROJECT\DEMO\LAB10\X64\DEBUG\STB_IMAGE.OBJ|C:\USERS\MADS\SOURCE\REPOS\PROIECT\OPENGL-PROJECT\DEMO\LAB10\X64\DEBUG\TINY_OBJ_LOADER.OBJ
C:\USERS\MADS\SOURCE\REPOS\PROIECT\OPENGL-PROJECT\DEMO\X64\DEBUG\LAB10.EXE
C:\USERS\MADS\SOURCE\REPOS\PROIECT\OPENGL-PROJECT\DEMO\X64\DEBUG\LAB10.ILK
C:\USERS\MADS\SOURCE\REPOS\PROIECT\OPENGL-PROJECT\DEMO\X64\DEBUG\LAB10.PDB
