﻿C:\Program Files (x86)\Microsoft Visual Studio\2019\Community\MSBuild\Microsoft\VC\v160\Microsoft.CppBuild.targets(491,5): warning MSB8028: The intermediate directory (x64\Debug\) contains files shared from another project (LAB7.vcxproj).  This can lead to incorrect clean and rebuild behavior.
  main.cpp
C:\Users\Mads\source\repos\PROIECT\opengl-project\DEMO\Lab10\main.cpp(190,11): warning C4244: '=': conversion from 'double' to 'float', possible loss of data
C:\Users\Mads\source\repos\PROIECT\opengl-project\DEMO\Lab10\main.cpp(191,11): warning C4244: '=': conversion from 'double' to 'float', possible loss of data
C:\Users\Mads\source\repos\PROIECT\opengl-project\DEMO\Lab10\main.cpp(199,48): warning C4244: 'argument': conversion from 'double' to 'float', possible loss of data
C:\Users\Mads\source\repos\PROIECT\opengl-project\DEMO\Lab10\main.cpp(199,28): warning C4244: 'argument': conversion from 'double' to 'float', possible loss of data
C:\Users\Mads\source\repos\PROIECT\opengl-project\DEMO\Lab10\main.cpp(201,11): warning C4244: '=': conversion from 'double' to 'float', possible loss of data
C:\Users\Mads\source\repos\PROIECT\opengl-project\DEMO\Lab10\main.cpp(202,11): warning C4244: '=': conversion from 'double' to 'float', possible loss of data
C:\Users\Mads\source\repos\PROIECT\opengl-project\DEMO\Lab10\main.cpp(245,11): warning C4244: 'initializing': conversion from 'int' to 'float', possible loss of data
C:\Users\Mads\source\repos\PROIECT\opengl-project\DEMO\Lab10\main.cpp(246,11): warning C4244: 'initializing': conversion from 'int' to 'float', possible loss of data
C:\Users\Mads\source\repos\PROIECT\opengl-project\DEMO\Lab10\main.cpp(292,22): warning C4305: '-=': truncation from 'double' to 'T'
          with
          [
              T=float
          ]
C:\Users\Mads\source\repos\PROIECT\opengl-project\DEMO\Lab10\main.cpp(293,23): warning C4305: '-=': truncation from 'double' to 'T'
          with
          [
              T=float
          ]
C:\Users\Mads\source\repos\PROIECT\opengl-project\DEMO\Lab10\main.cpp(298,22): warning C4305: '+=': truncation from 'double' to 'T'
          with
          [
              T=float
          ]
C:\Users\Mads\source\repos\PROIECT\opengl-project\DEMO\Lab10\main.cpp(299,23): warning C4305: '+=': truncation from 'double' to 'T'
          with
          [
              T=float
          ]
C:\Users\Mads\source\repos\PROIECT\opengl-project\DEMO\Lab10\main.cpp(304,22): warning C4305: '-=': truncation from 'double' to 'T'
          with
          [
              T=float
          ]
C:\Users\Mads\source\repos\PROIECT\opengl-project\DEMO\Lab10\main.cpp(305,23): warning C4305: '-=': truncation from 'double' to 'T'
          with
          [
              T=float
          ]
C:\Users\Mads\source\repos\PROIECT\opengl-project\DEMO\Lab10\main.cpp(311,22): warning C4305: '+=': truncation from 'double' to 'T'
          with
          [
              T=float
          ]
C:\Users\Mads\source\repos\PROIECT\opengl-project\DEMO\Lab10\main.cpp(312,23): warning C4305: '+=': truncation from 'double' to 'T'
          with
          [
              T=float
          ]
C:\Users\Mads\source\repos\PROIECT\opengl-project\DEMO\Lab10\main.cpp(351,20): warning C4305: '+=': truncation from 'double' to 'float'
C:\Users\Mads\source\repos\PROIECT\opengl-project\DEMO\Lab10\main.cpp(777,26): warning C4305: '-=': truncation from 'double' to 'float'
C:\Users\Mads\source\repos\PROIECT\opengl-project\DEMO\Lab10\main.cpp(863,26): warning C4305: '-=': truncation from 'double' to 'float'
  Lab10.vcxproj -> C:\Users\Mads\source\repos\PROIECT\opengl-project\DEMO\x64\Debug\Lab10.exe
